module github.com/vanilla-os/apx

go 1.18

require (
	github.com/spf13/cobra v1.5.0
	golang.org/x/sys v0.0.0-20220520151302-bc2c85ada10a
)

require (
	github.com/fatih/color v1.13.0 // indirect
	github.com/fsnotify/fsnotify v1.5.4 // indirect
	github.com/hashicorp/hcl v1.0.0 // indirect
	github.com/magiconair/properties v1.8.6 // indirect
	github.com/mattn/go-colorable v0.1.12 // indirect
	github.com/mattn/go-isatty v0.0.14 // indirect
	github.com/mitchellh/mapstructure v1.5.0 // indirect
	github.com/pelletier/go-toml v1.9.5 // indirect
	github.com/pelletier/go-toml/v2 v2.0.5 // indirect
	github.com/spf13/afero v1.8.2 // indirect
	github.com/spf13/cast v1.5.0 // indirect
	github.com/spf13/jwalterweatherman v1.1.0 // indirect
	github.com/subosito/gotenv v1.4.1 // indirect
	golang.org/x/text v0.3.7 // indirect
	gopkg.in/ini.v1 v1.67.0 // indirect
	gopkg.in/yaml.v2 v2.4.0 // indirect
	gopkg.in/yaml.v3 v3.0.1 // indirect
)

require (
	github.com/briandowns/spinner v1.19.0
	github.com/google/uuid v1.3.0
	github.com/inconshreveable/mousetrap v1.0.0 // indirect
	github.com/mattn/go-sqlite3 v1.14.15
	github.com/spf13/pflag v1.0.5 // indirect
	github.com/spf13/viper v1.13.0
)
